{
  "project_info": {
    "project_number": "208583167965",
    "project_id": "chongmu-1316"
  },
  "client": [
    {
      "client_info": {
        "mobilesdk_app_id": "1:208583167965:android:bc5d96462f124f88",
        "android_client_info": {
          "package_name": "com.woojinsoft.chongmoo.android"
        }
      },
      "oauth_client": [],
      "api_key": [
        {
          "current_key": "AIzaSyDfA0XRrA67F_gQVJsBA9OUq7Ryv9ut5YM"
        }
      ],
      "services": {
        "analytics_service": {
          "status": 2,
          "analytics_property": {
            "tracking_id": "UA-77943674-1"
          }
        },
        "appinvite_service": {
          "status": 1,
          "other_platform_oauth_client": []
        },
        "ads_service": {
          "status": 1
        }
      }
    }
  ],
  "configuration_version": "1"
}